<?xml version="1.0" encoding="utf-8"?>
<svg xmlns="http://www.w3.org/2000/svg" xmlns:xlink="http://www.w3.org/1999/xlink" style="margin: auto; background: none; display: block; shape-rendering: auto;" width="224px" height="224px" viewBox="0 0 100 100" preserveAspectRatio="xMidYMid">
<g transform="translate(20 50)">
<circle cx="0" cy="0" r="5" fill="#404040">
  <animateTransform attributeName="transform" type="scale" begin="-0.3440366972477064s" calcMode="spline" keySplines="0.3 0 0.7 1;0.3 0 0.7 1" values="0;1;0" keyTimes="0;0.5;1" dur="0.9174311926605504s" repeatCount="indefinite"></animateTransform>
</circle>
</g><g transform="translate(40 50)">
<circle cx="0" cy="0" r="5" fill="#777777">
  <animateTransform attributeName="transform" type="scale" begin="-0.2293577981651376s" calcMode="spline" keySplines="0.3 0 0.7 1;0.3 0 0.7 1" values="0;1;0" keyTimes="0;0.5;1" dur="0.9174311926605504s" repeatCount="indefinite"></animateTransform>
</circle>
</g><g transform="translate(60 50)">
<circle cx="0" cy="0" r="5" fill="#afafaf">
  <animateTransform attributeName="transform" type="scale" begin="-0.1146788990825688s" calcMode="spline" keySplines="0.3 0 0.7 1;0.3 0 0.7 1" values="0;1;0" keyTimes="0;0.5;1" dur="0.9174311926605504s" repeatCount="indefinite"></animateTransform>
</circle>
</g><g transform="translate(80 50)">
<circle cx="0" cy="0" r="5" fill="#c7c7c7">
  <animateTransform attributeName="transform" type="scale" begin="0s" calcMode="spline" keySplines="0.3 0 0.7 1;0.3 0 0.7 1" values="0;1;0" keyTimes="0;0.5;1" dur="0.9174311926605504s" repeatCount="indefinite"></animateTransform>
</circle>
</g>
<!-- [ldio] generated by https://loading.io/ --></svg>